0.246154 0.215385 0.0769231 0.461538
-0.227112 -1.01962 -1.19012 0.95354
1.41302 1.66867 1.34104 1.912
5.30237 4.18939 5.85874 5.46433
-9.20299 -7.32328 -7.90259 -9.289
-4.98793 -4.93288 -5.07654 -4.75614
-31.2376 -32.6906 -30.7059 -29.318
6.87887 7.34418 6.79108 7.17337
8.04157 7.43982 7.9768 7.96885
-19.3641 -17.0983 -18.9052 -20.4964
-5.66719 -5.64532 -5.54344 -5.59432
-12.3693 -14.9065 -13.5396 -11.4414
5.22783 5.82462 4.96523 4.43586
3.21949 3.04454 3.43815 2.88758
0.874523 -0.226406 -0.366895 -1.15989
-0.0329841 -0.279372 -0.0843874 -0.494862
1.47698 1.63177 1.34104 1.89924
5.34886 4.18162 5.85874 5.42435
-9.22455 -7.34596 -7.90259 -9.27852
-4.9493 -4.92862 -5.07654 -4.76839
-31.1562 -32.7225 -30.7059 -29.3583
6.88014 7.31467 6.79108 7.18546
8.03052 7.49504 7.9768 7.95704
-19.354 -17.1342 -18.9052 -20.4872
-5.67149 -5.64592 -5.54344 -5.59901
-12.3603 -14.8447 -13.5396 -11.466
5.21025 5.7948 4.96523 4.46598
3.18552 3.06517 3.43815 2.89168
0.856069 -0.193089 -0.366895 -1.15944
-0.0908222 -0.266956 -0.0843874 -0.475236
0.328904 0.275976 1.34104 0.345742
1.04068 0.777742 5.85874 0.984585
-1.74711 -1.3958 -7.90259 -1.73121
-0.896609 -0.920653 -5.07654 -0.90403
-5.77568 -6.16142 -30.7059 -5.53747
1.29106 1.34752 6.79108 1.3571
1.49675 1.45019 7.9768 1.48235
-3.62064 -3.24182 -18.9052 -3.83384
-1.06689 -1.0591 -5.54344 -1.05363
-2.31029 -2.73322 -13.5396 -2.16984
0.962638 1.0623 4.96523 0.861841
0.569687 0.59148 3.43815 0.545514
0.145519 -0.00913405 -0.366895 -0.217034
-0.0640226 -0.0399665 -0.0843874 -0.0731607
0.591294 0.112994 0.0456929 0.112507
0.152262 0.0676346 0.0440248 0.0360758
1.75375 0.13738 0.12217 0.283344
0.723544 0.685462 0.504609 0.217817
0.0613296 0.0755304 0.242333 0.0355817
0.649596 0.704889 0.896986 0.287674
0.0875196 0.0585555 0.0580949 0.115737
0.183131 0.114649 0.023777 0.20285
0.573337 0.119539 0.333163 0.131327
0.0438434 0.00654528 0.0376568 0.0326683
0.725257 0.600624 0.53212 0.348194
0.440607 0.153942 0.126236 0.159259
0.119118 0.0400522 0.0477545 0.0827697
0.93935 0.823862 1.53404 0.549006
0.161642 0.0982121 0.141275 0.0344787
0.105235 0.0666679 0.0440248 0.028422
1.56465 0.0999038 0.12217 0.223502
0.543951 0.504606 0.504609 0.159938
0.0527929 0.0442276 0.242333 0.0221978
0.464671 0.40731 0.896986 0.236267
0.0622923 0.0446721 0.0580949 0.0763771
0.170542 0.0650563 0.023777 0.167482
0.551594 0.106625 0.333163 0.103761
0.0301111 0.0042496 0.0376568 0.0286146
0.593181 0.564367 0.53212 0.254174
0.440915 0.0843799 0.126236 0.100992
0.080652 0.0286223 0.0477545 0.0591914
0.633152 0.615369 1.53404 0.391772
0.138495 0.0810709 0.141275 0.0323462
0.00820357 0.00595076 0.0440248 0.00335345
0.0629485 0.00780127 0.12217 0.0131511
0.0543863 0.043169 0.504609 0.00907513
0.00756547 0.00493989 0.242333 0.00194416
0.0758609 0.0270804 0.896986 0.0294377
0.00867399 0.00937266 0.0580949 0.00404797
0.0199023 0.00814075 0.023777 0.00855626
0.0597102 0.0134665 0.333163 0.00675877
0.00143648 0.000502975 0.0376568 0.00183271
0.0941247 0.0496008 0.53212 0.0192047
0.0434749 0.006712 0.126236 0.0131517
0.0075089 0.00460784 0.0477545 0.00427619
0.0702162 0.0448357 1.53404 0.0347651
0.010302 0.00696993 0.141275 0.00339763
