0.220779 0.233766 0.0649351 0.480519
-0.318825 -0.588902 -1.22401 0.927671
1.87711 1.94833 1.59679 2.16497
4.88392 3.85916 4.80336 4.11367
-7.69621 -7.43928 -6.75844 -8.31438
-4.75284 -4.92204 -5.00506 -4.5698
-29.7629 -32.7778 -31.2658 -28.6263
6.36317 7.37666 6.64329 6.02036
8.6518 7.3212 8.38691 8.0917
-19.232 -16.8081 -17.8914 -19.4515
-5.42183 -5.6544 -5.5589 -5.36637
-14.3147 -15.4312 -15.3017 -12.8003
4.76457 6.29896 5.07172 5.09129
3.48486 2.94231 3.54673 3.68601
0.772823 0.109386 -1.05768 -1.81354
-0.936023 -0.478637 -0.429545 -1.15823
1.87492 1.94453 1.59679 2.16704
4.84508 3.88093 4.80336 4.10108
-7.73681 -7.40803 -6.75844 -8.32154
-4.73765 -4.92231 -5.00506 -4.57582
-29.7135 -32.8196 -31.2658 -28.6605
6.37497 7.37823 6.64329 6.02577
8.61475 7.33754 8.38691 8.08444
-19.2568 -16.81 -17.8914 -19.4223
-5.42155 -5.65619 -5.5589 -5.36925
-14.2756 -15.4449 -15.3017 -12.8173
4.80911 6.27943 5.07172 5.10711
3.48843 2.94735 3.54673 3.67877
0.781032 0.105464 -1.05768 -1.81485
-0.954096 -0.480936 -0.429545 -1.14774
0.349765 0.361514 1.59679 0.407998
0.876891 0.745362 4.80336 0.758719
-1.48363 -1.36361 -6.75844 -1.56611
-0.875967 -0.923147 -5.00506 -0.862857
-5.53116 -6.18768 -31.2658 -5.40162
1.20489 1.3847 6.64329 1.13423
1.58516 1.38907 8.38691 1.50994
-3.63083 -3.15346 -17.8914 -3.61801
-1.01631 -1.06199 -5.5589 -1.00908
-2.64496 -2.90704 -15.3017 -2.41707
0.9379 1.16153 5.07172 0.970439
0.656985 0.556721 3.54673 0.683893
0.153113 0.0165877 -1.05768 -0.341353
-0.193577 -0.0920442 -0.429545 -0.206678
0.228261 0.14798 0.00529667 0.0713301
0.0544247 0.0566669 0.0293607 0.0728626
0.210104 0.130514 0.322234 0.139717
0.588977 0.243237 0.262225 0.0972006
0.159085 0.0223596 0.0526819 0.0800252
0.306255 0.657271 1.7616 0.294965
0.12899 0.0397234 0.296379 0.0950073
0.120942 0.0297306 0.318391 0.0774035
0.181916 0.144159 0.389893 0.237614
0.0086027 0.0115416 0.00618093 0.0183836
0.297886 0.441036 0.100462 0.196806
0.291441 0.190538 0.577971 0.131649
0.0781683 0.05307 0.129192 0.0420087
1.09482 0.289153 0.692821 1.11366
0.174109 0.0207784 0.0123242 0.137448
0.0406851 0.0468037 0.0293607 0.0529774
0.155994 0.107945 0.322234 0.125662
0.449287 0.164549 0.262225 0.0728192
0.1235 0.0137159 0.0526819 0.0671561
0.308164 0.475151 1.7616 0.271577
0.08455 0.0268155 0.296379 0.0673358
0.0917015 0.0260108 0.318391 0.0665112
0.185254 0.128522 0.389893 0.194702
0.00629445 0.0087894 0.00618093 0.0109724
0.247331 0.336399 0.100462 0.152492
0.233242 0.153199 0.577971 0.117692
0.0522491 0.0447059 0.129192 0.0287479
0.749242 0.211525 0.692821 0.819813
0.154864 0.0139969 0.0123242 0.114131
0.00305572 0.00308434 0.0293607 0.00402899
0.010475 0.00357545 0.322234 0.00759492
0.013416 0.00763664 0.262225 0.00703377
0.00731297 0.00225795 0.0526819 0.00479155
0.0447951 0.0208898 1.7616 0.0223366
0.0122786 0.00226085 0.296379 0.0075927
0.0141738 0.0027925 0.318391 0.00519508
0.0299632 0.00721136 0.389893 0.0173066
0.000921992 0.000556694 0.00618093 0.0012907
0.0310558 0.0195122 0.100462 0.0177823
0.0210891 0.0096376 0.577971 0.00947867
0.00541438 0.00307897 0.129192 0.00417642
0.0671719 0.0174396 0.692821 0.0606102
0.00788172 0.00104595 0.0123242 0.00842015
