0.0746269 0.238806 0.373134 0.313433
-1.09559 -0.516626 0.0489717 0.726301
1.57461 1.59 1.77801 1.83763
5.30715 5.12824 4.65054 4.42778
-6.60295 -7.00013 -8.01917 -8.06024
-5.09593 -5.10487 -4.41531 -4.20307
-31.3311 -32.0627 -29.1815 -28.6698
6.5667 7.32231 6.42007 6.28919
8.48171 7.4214 7.99663 7.8764
-18.1236 -17.0941 -19.197 -19.4229
-5.62806 -5.54332 -5.60329 -5.60515
-15.5448 -15.988 -14.2489 -13.4603
4.96993 5.35258 5.29598 5.28423
3.72164 3.46831 3.74592 3.7015
-0.80276 -0.312284 1.02261 -1.27138
-0.355259 -0.405654 -1.09143 -1.20222
1.57461 1.58864 1.76564 1.84901
5.30715 5.1396 4.63045 4.44331
-6.60295 -6.97616 -8.02285 -8.07731
-5.09593 -5.0888 -4.43819 -4.18937
-31.3311 -32.0476 -29.2245 -28.6764
6.5667 7.30765 6.45747 6.26745
8.48171 7.45176 7.97797 7.86321
-18.1236 -17.1129 -19.1632 -19.4187
-5.62806 -5.55666 -5.59612 -5.60795
-15.5448 -15.9918 -14.2684 -13.452
4.96993 5.34065 5.32174 5.27672
3.72164 3.47216 3.73035 3.71869
-0.80276 -0.342039 0.924731 -1.14231
-0.355259 -0.409856 -1.07312 -1.21711
1.57461 0.296765 0.32101 0.355928
5.30715 0.972908 0.851892 0.845737
-6.60295 -1.28856 -1.50728 -1.52837
-5.09593 -0.941096 -0.850751 -0.774381
-31.3311 -5.99665 -5.51448 -5.3822
6.5667 1.35827 1.24117 1.15748
8.48171 1.42187 1.48071 1.46363
-18.1236 -3.2239 -3.56567 -3.63762
-5.62806 -1.05272 -1.04344 -1.05377
-15.5448 -3.00153 -2.69122 -2.51555
4.96993 0.991679 1.01875 0.983283
3.72164 0.654156 0.686787 0.711221
-0.80276 -0.0883076 0.0938609 -0.109313
-0.355259 -0.0802621 -0.186336 -0.240302
0.0419008 0.0559242 0.159609 0.0649325
0.0198073 0.0294563 0.042066 0.0316388
0.0350998 0.0833595 0.113137 0.0620823
0.120656 0.309268 0.328593 0.0634079
0.0130437 0.0284856 0.0871498 0.125159
1.81084 0.287688 0.649965 0.201728
0.169147 0.169034 0.0683588 0.111684
0.12344 0.325501 0.101411 0.0869649
0.795088 0.412517 0.140951 0.170707
0.00361596 0.00907422 0.0341901 0.0118517
0.292657 0.71499 0.221693 0.292461
0.0834135 0.158001 0.114957 0.0517655
0.0387519 0.0234666 0.116646 0.0434736
0.156603 0.746245 0.800994 0.825322
0.0194962 0.0216739 0.0839642 0.100471
0.0198073 0.0194017 0.0292816 0.0271364
0.0350998 0.051953 0.0876114 0.0487045
0.120656 0.171376 0.291821 0.0575999
0.0130437 0.0180032 0.0712224 0.0983934
1.81084 0.364391 0.718961 0.141848
0.169147 0.147054 0.0542247 0.081729
0.12344 0.297566 0.111549 0.0725877
0.795088 0.373435 0.114989 0.120398
0.00361596 0.00637032 0.0268772 0.00926992
0.292657 0.622464 0.168536 0.243976
0.0834135 0.157082 0.0872629 0.0430022
0.0387519 0.0172612 0.092763 0.0416958
0.156603 0.507476 0.575786 0.609663
0.0194962 0.0128134 0.0662504 0.0758068
0.0198073 0.00139839 0.00243823 0.00186033
0.0350998 0.00222186 0.00554736 0.00544348
0.120656 0.00639164 0.0125282 0.00511495
0.0130437 0.00210819 0.00843448 0.00421843
1.81084 0.0377339 0.0668363 0.0131936
0.169147 0.00410776 0.0103626 0.00516129
0.12344 0.0090701 0.009541 0.0026003
0.795088 0.0303717 0.0329622 0.00804631
0.00361596 0.000200109 0.00153506 0.00133289
0.292657 0.0356046 0.0183925 0.012991
0.0834135 0.00639242 0.00412732 0.00147481
0.0387519 0.00139174 0.00497857 0.00310205
0.156603 0.0289009 0.120325 0.0949422
0.0194962 0.00132472 0.00707968 0.0037496
