0.0666667 0.44 0.24 0.253333
-1.19174 1.49306 -0.64112 0.232545
1.14868 1.49304 1.36004 1.57467
5.56659 4.91303 5.43996 5.62954
-7.00915 -9.08646 -7.9072 -9.05879
-4.9805 -4.94165 -5.0755 -5.00706
-30.6775 -29.3397 -29.9077 -31.1634
6.8258 7.2375 6.66165 6.92975
8.05572 8.12504 8.12082 8.18734
-18.5507 -19.8573 -18.6295 -19.6279
-5.57786 -5.44828 -5.59145 -5.47699
-14.3763 -12.1075 -13.4407 -12.0846
4.90132 4.70338 5.09782 4.55333
3.75708 3.22003 3.23 3.3288
-1.71807 -2.17264 -3.40924 1.06705
-0.235807 -0.485739 0.126925 -0.387745
1.14868 1.49124 1.36557 1.57345
5.56659 4.91177 5.43027 5.61958
-7.00915 -9.09833 -7.89865 -9.02464
-4.9805 -4.95103 -5.07292 -4.99307
-30.6775 -29.3584 -29.9342 -31.1176
6.8258 7.23754 6.67532 6.93367
8.05572 8.13047 8.11968 8.17484
-18.5507 -19.8378 -18.6404 -19.6124
-5.57786 -5.44474 -5.59421 -5.48184
-14.3763 -12.1032 -13.457 -12.1212
4.90132 4.69643 5.10195 4.57382
3.75708 3.21306 3.23346 3.32219
-1.71807 -2.13728 -3.39538 0.96402
-0.235807 -0.473545 0.11312 -0.39359
1.14868 0.278146 0.260542 0.294029
5.56659 0.919932 1.0103 1.04558
-7.00915 -1.71558 -1.47405 -1.66437
-4.9805 -0.935944 -0.949078 -0.924831
-30.6775 -5.51995 -5.6342 -5.79737
6.8258 1.35707 1.26273 1.30325
8.05572 1.52887 1.52151 1.52263
-18.5507 -3.70373 -3.50391 -3.66475
-5.57786 -1.01801 -1.05116 -1.03179
-14.3763 -2.26587 -2.53639 -2.30243
4.90132 0.874933 0.959968 0.874242
3.75708 0.596789 0.609082 0.617539
-1.71807 -0.372007 -0.625374 0.097041
-0.235807 -0.0788817 0.00999355 -0.078548
0.0110436 0.151208 0.240929 0.235832
0.0492446 0.0177226 0.0329649 0.0669624
0.102157 0.069282 0.147358 0.177069
0.130631 0.141671 0.351469 0.776307
0.00503445 0.0230159 0.0257707 0.0990181
0.378719 0.151399 0.473628 0.486807
0.047586 0.0329019 0.062622 0.132272
0.0567376 0.0572248 0.062165 0.103014
0.202558 0.0660901 0.435709 0.643241
0.00497817 0.0171225 0.0123671 0.0390668
0.0560659 0.279019 0.425136 0.713779
0.0322408 0.11313 0.12547 0.145586
0.111138 0.0369403 0.0901344 0.17645
0.0292789 1.14175 0.945629 1.04561
0.0109161 0.0435375 0.0315178 0.141746
0.0492446 0.0109228 0.0211952 0.0587562
0.102157 0.0513741 0.0718945 0.134657
0.130631 0.116911 0.243655 0.622428
0.00503445 0.0236504 0.0143345 0.0812819
0.378719 0.142887 0.37194 0.368238
0.047586 0.0222832 0.0290229 0.0837842
0.0567376 0.0506432 0.0375261 0.0641152
0.202558 0.0582735 0.228605 0.539656
0.00497817 0.0126045 0.00589982 0.0269222
0.0560659 0.207017 0.30225 0.566655
0.0322408 0.0845754 0.0621122 0.0981998
0.111138 0.0334857 0.0485158 0.132347
0.0292789 0.978923 0.635504 0.630108
0.0109161 0.0434626 0.0194104 0.136136
0.0492446 0.000998332 0.00219939 0.00383368
0.102157 0.00268871 0.0113537 0.00921782
0.130631 0.00924997 0.0242385 0.047762
0.00503445 0.00163927 0.00190881 0.00353328
0.378719 0.0136571 0.0258837 0.0608785
0.047586 0.00187163 0.00584723 0.00785432
0.0567376 0.00282879 0.00351326 0.00666686
0.202558 0.00633474 0.0269739 0.0562635
0.00497817 0.00120064 0.000920268 0.00189392
0.0560659 0.0146712 0.0261202 0.0658365
0.0322408 0.00638978 0.00829198 0.0101384
0.111138 0.00255271 0.00744791 0.00396454
0.0292789 0.0888265 0.0619703 0.166182
0.0109161 0.00278502 0.00296209 0.00622266
