0.25 0.611111 0.0555556 0.0833333
-0.608267 1.02272 -0.204704 -0.891671
0.909267 1.00046 0.934517 1.21237
4.65675 3.61707 4.97153 4.38567
-6.88561 -8.06244 -7.39659 -7.20177
-4.66231 -4.96047 -4.63072 -4.84128
-29.2809 -28.8996 -28.1775 -29.437
6.80763 7.0863 7.28102 6.86492
7.78237 7.58586 7.54532 8.09224
-18.5355 -19.8521 -19.2328 -18.7283
-5.59176 -5.53009 -5.76615 -5.6333
-14.1011 -12.1301 -14.7725 -14.1213
4.93073 5.56358 5.22545 4.91232
3.61441 3.31164 3.24799 3.43671
-4.34125 -3.83853 -1.60331 -6.07258
-0.141383 0.133297 -0.0199911 -0.127924
0.454634 0.50023 0.467258 0.606187
1.87374 1.3083 2.01851 1.58665
-5.77118 -5.83975 -6.18406 -5.79372
1.11165 1.55098 1.38294 1.18024
-12.3093 -11.9696 -11.7734 -12.2978
18.0443 17.993 17.7293 18.1509
0.487367 0.249782 0.132152 0.61366
-13.1589 -13.719 -13.3891 -13.4103
6.47187 7.161 6.73334 6.54751
-4.25467 -3.30003 -4.50318 -4.24399
9.51591 8.84686 9.99898 9.5168
-0.658158 -1.12597 -0.988729 -0.737808
-3.97783 -3.57508 -2.42565 -4.75465
2.09993 1.98591 0.791657 2.97233
0.227317 0.250115 0.233629 0.303094
0.709555 0.404037 0.775625 0.49023
-3.82246 -3.57403 -4.10129 -3.69018
3.44142 3.69537 3.7835 3.48698
-6.71047 -6.76028 -6.57816 -6.73904
15.1768 14.9813 14.7513 15.2244
-8.77845 -8.87159 -8.79855 -8.76864
-6.82315 -6.98438 -6.76061 -7.01197
9.8154 10.44 10.0612 9.9789
-5.36327 -5.23051 -5.61826 -5.39575
6.88529 6.07345 7.25108 6.88039
-5.08703 -4.98642 -5.49386 -5.1273
-1.65984 -1.22456 -0.71846 -2.00842
3.03888 2.7805 1.60865 3.86349
0.0941146 0.0746302 0.0183416 0.0275021
0.0390683 0.0661652 0.0266048 0.0090707
0.0298536 0.140845 0.00144302 0.0182916
0.0490547 0.0873247 0.015739 0.0538404
0.00516553 0.0597224 0.0634597 0.00717531
0.414166 0.204246 0.00279792 0.0469684
0.0205763 0.0329928 0.00173752 0.0113983
0.0243261 0.0601495 0.000490981 0.01578
0.217429 0.0792934 0.0212648 0.301469
0.0139806 0.0179923 0.0113338 0.0022843
0.0927566 0.311097 0.0118352 0.00316204
0.0200553 0.0448569 0.000538268 0.105475
0.0275461 0.0156112 0.00191872 0.00173957
0.466852 0.573209 0.0646074 0.0228585
0.0300201 0.0442123 0.00194241 0.00246213
0.00978208 0.0165563 0.0066662 0.00228267
0.021491 0.0245573 0.0100973 0.00347507
0.0241842 0.0720156 0.00667028 0.009465
0.0112474 0.0156788 0.035599 0.00560888
0.0920076 0.0323913 0.00993681 0.0206435
0.102736 0.0564097 0.002236 0.00407389
0.00852074 0.0339138 0.00101682 0.0132251
0.0551599 0.0594074 0.00386734 0.0513068
0.0380109 0.028812 0.0159114 0.0690793
0.0122374 0.0587457 0.0115831 5.15436e-005
0.0358883 0.0962797 0.00434064 0.0276976
0.00809 0.0202777 0.00112024 0.0201003
0.112612 0.151683 0.0111045 0.00915824
0.112944 0.0911981 0.0222189 0.0100644
0.00246052 0.00415407 0.00168155 0.000585669
0.013772 0.0117552 0.0082928 0.0017369
0.0162631 0.0376616 0.00829508 0.00529847
0.015881 0.0298907 0.0182684 0.00693032
0.0274745 0.0049443 0.0207858 0.00133147
0.0955183 0.0412545 0.000709292 0.0101103
0.0194764 0.0262578 0.00156634 0.00215773
0.0120017 0.0420115 0.000251868 0.00579807
0.0431735 0.0408366 0.00886427 0.0590158
0.014959 0.0200677 0.0136614 0.0170644
0.0217816 0.0732999 0.00752506 0.00675633
0.0104578 0.0410408 0.00246538 0.0236005
0.0287532 0.05005 0.00132008 0.000621043
0.109558 0.118269 0.0161841 0.00960111
