0.489796 0.183673 0.0408163 0.285714
0.143774 -0.541159 0.184813 0.843577
1.807 1.25962 1.21387 0.880869
4.45615 4.77708 4.2793 3.72932
-7.72442 -6.49145 -8.59067 -8.2712
-4.45356 -4.68309 -5.36607 -4.61932
-29.9472 -30.9851 -30.2909 -28.5686
7.62893 7.1821 7.79141 6.8353
6.45068 8.15822 7.29423 7.38248
-17.6151 -17.3941 -18.6407 -19.2808
-5.69653 -5.69791 -5.60825 -5.726
-14.589 -15.1026 -13.4921 -13.0233
6.24137 4.57532 5.52977 5.75328
2.90771 3.05572 2.29516 3.42379
-3.67109 -3.66176 -0.263071 -4.19716
-0.683962 -0.14632 0.860465 0.12692
0.9035 0.629808 0.606934 0.440434
1.32458 1.75873 1.53272 1.42423
-6.09029 -5.63427 -6.43499 -6.00026
1.63543 0.90418 1.6123 1.82594
-12.7468 -13.151 -12.4624 -11.9746
18.788 19.0836 19.0411 17.702
-0.589124 0.488057 -0.248587 0.27359
-12.0329 -12.7762 -12.9675 -13.3317
5.95928 5.84812 6.51624 6.77741
-4.44626 -4.70235 -3.94193 -3.64867
10.4152 9.83897 9.51094 9.38831
-1.66683 -0.759799 -1.61731 -1.16474
-3.2894 -3.35874 -1.27912 -3.81048
1.49356 1.75772 0.561768 2.16204
0.45175 0.314904 0.303467 0.220217
0.210538 0.564463 0.462892 0.491896
-3.70743 -3.6965 -3.98385 -3.71224
3.86286 3.26922 4.02364 3.9131
-7.19112 -7.02759 -7.03735 -6.90029
15.7674 16.1173 15.7518 14.8383
-9.68859 -9.29777 -9.64486 -8.71418
-5.72188 -6.63212 -6.35945 -6.80262
8.99608 9.31215 9.74186 10.0545
-5.20277 -5.27523 -5.22908 -5.21304
7.43073 7.27066 6.72643 6.51849
-6.04102 -5.29938 -5.56412 -5.27653
-0.811283 -1.29947 0.169095 -1.32287
2.39148 2.55823 0.920442 2.98626
0.0175474 0.0453435 0.0348744 0.0618123
0.0127692 0.0161199 0.0149698 0.0169576
0.0871907 0.0809443 0.0709491 0.111058
0.178368 0.0620219 0.0966009 0.0472798
0.0487869 0.0128103 0.0173958 0.0251551
0.180169 0.100223 0.896994 0.0566706
0.0159038 0.136801 0.136582 0.0726023
0.0514796 0.0499972 0.0856993 0.0921203
0.113147 0.109929 0.570616 0.191122
0.0147595 0.0176693 0.000199891 0.00931271
0.145066 0.369477 0.120875 0.188637
0.0356525 0.0635352 0.0394054 0.0512053
0.024792 0.0790761 0.0609482 0.08409
0.224719 0.234917 0.19999 0.53122
0.0329074 0.0196194 0.0287294 0.0778164
0.0032073 0.00404498 0.00375746 0.00425441
0.0224077 0.0284495 0.0377714 0.0224843
0.1161 0.0126903 0.083281 0.0389022
0.0207463 0.0228149 0.00802645 0.013381
0.0419802 0.0254893 0.291029 0.0124178
0.0469764 0.0644561 0.433399 0.0420663
0.0225188 0.0444553 0.109665 0.0586937
0.0605278 0.039181 0.274642 0.114751
0.0238663 0.0192061 0.14778 0.0372577
0.0308542 0.0616946 0.0279475 0.0516419
0.0446742 0.0792008 0.0745764 0.0839291
0.013514 0.0327756 0.0495917 0.0159817
0.0599102 0.125179 0.120435 0.132821
0.038003 0.063618 0.0950746 0.154572
0.000816824 0.00102625 0.000954364 0.0010786
0.00735932 0.0111895 0.0163314 0.00642945
0.0562239 0.0149695 0.0583054 0.0270462
0.0554491 0.0103344 0.0357464 0.0129556
0.0205076 0.00647746 0.050639 0.00772268
0.0402303 0.0355455 0.358682 0.0174432
0.0159361 0.0401277 0.244769 0.0392011
0.0338759 0.0127308 0.182849 0.073262
0.0362203 0.023699 0.206336 0.0682022
0.0121722 0.0198368 0.0118227 0.0165039
0.0348619 0.066227 0.0484564 0.0634783
0.0138608 0.0347071 0.0614489 0.0229582
0.0226129 0.0617347 0.0811467 0.0342947
0.0446878 0.0868333 0.10738 0.124248
