0.142857 0.171429 0.4 0.285714
-0.41926 0.0952639 -0.195159 1.20323
1.58303 1.16098 1.70676 1.68917
4.48083 3.92403 4.24563 3.66961
-7.61737 -7.49667 -6.78398 -7.53978
-4.45199 -4.62132 -4.53694 -4.79735
-29.3731 -28.1161 -31.0008 -27.6159
7.93113 7.18623 7.20803 7.10534
6.85079 6.94901 7.82392 7.54781
-18.9699 -18.5572 -17.8173 -17.6435
-5.77705 -5.65817 -5.67349 -5.55933
-15.065 -15.0045 -14.6664 -15.4941
5.68998 5.98898 5.18213 5.52633
2.92859 3.50059 2.92937 2.79501
-2.03997 -3.4394 -3.39068 -6.05965
-0.668698 -0.324343 -0.573381 -0.210753
0.791517 0.580489 0.853379 0.844584
1.4489 1.38153 1.26944 0.990219
-6.0491 -5.71035 -5.51481 -5.60469
1.58269 1.43768 1.12352 1.37122
-12.4606 -11.7474 -13.2319 -11.4093
18.6521 17.6512 19.1044 17.3606
-0.540173 -0.118607 0.307943 0.221234
-12.9103 -12.7531 -12.8206 -12.5957
6.59641 6.44954 6.07189 6.0421
-4.64397 -4.67318 -4.49643 -4.96738
10.3775 10.4968 9.92424 10.5102
-1.3807 -1.2442 -1.12638 -1.36566
-2.48428 -3.47 -3.16002 -4.42733
0.685636 1.55753 1.40865 2.92445
0.395758 0.290244 0.42669 0.422292
0.328691 0.40052 0.208028 0.0728173
-3.749 -3.54594 -3.39212 -3.29746
3.81589 3.57401 3.31916 3.48795
-7.02163 -6.59254 -7.17771 -6.39025
15.5563 14.6993 16.1682 14.3849
-9.59615 -8.88489 -9.39823 -8.56969
-6.18508 -6.31726 -6.56427 -6.40845
9.75338 9.60133 9.44624 9.31888
-5.62019 -5.56136 -5.28416 -5.50474
7.51073 7.58497 7.21034 7.7388
-5.87909 -5.87048 -5.52531 -5.93794
-0.551791 -1.1129 -1.01682 -1.53083
1.58496 2.51376 2.28434 3.67589
0.282723 0.573032 0.0628268 0.155785
0.0899359 0.0415254 0.108111 0.0342457
0.15346 0.875304 0.172849 0.240937
0.174837 0.248165 0.473944 0.155121
0.050766 0.0427405 0.0651007 0.021823
0.376147 0.270071 0.235431 0.256691
0.0441164 0.0773062 0.172875 0.0345206
0.229389 0.183103 0.104437 0.0289574
0.257129 0.196598 0.411164 0.776248
0.0296179 0.00808662 0.0169174 0.0102824
0.295499 0.28625 0.555741 0.502171
0.499191 0.493318 0.0677791 0.139903
0.056907 0.116632 0.109794 0.0991923
0.514321 0.289533 0.210157 0.316126
0.0438923 0.0464861 0.132476 0.00710293
0.022499 0.0103963 0.0270428 0.00857642
0.0780058 0.294543 0.118786 0.0347362
0.016214 0.0771161 0.0362151 0.152092
0.0932349 0.105608 0.21278 0.0234791
0.102814 0.0606046 0.0449244 0.042902
0.14218 0.0633075 0.049109 0.0421989
0.071537 0.116757 0.123077 0.0242781
0.185156 0.143543 0.0579388 0.225202
0.0441371 0.0419638 0.0852611 0.188254
0.106863 0.075101 0.136891 0.124453
0.262069 0.155706 0.124123 0.0477598
0.15638 0.256995 0.0662924 0.0054795
0.104615 0.0356561 0.11611 0.131719
0.168808 0.0785257 0.133958 0.0847481
0.00563974 0.00261409 0.0067757 0.00215911
0.0406624 0.0977644 0.0621125 0.00659895
0.0223997 0.158753 0.0221023 0.0817247
0.0324045 0.0218921 0.0994102 0.0700281
0.0637619 0.0232938 0.0639698 0.0280033
0.11935 0.0587407 0.0438342 0.040678
0.0588219 0.0469042 0.0513603 0.0120854
0.1068 0.123157 0.024209 0.0854462
0.0997515 0.0821911 0.0640244 0.204044
0.00724359 0.0238796 0.0138164 0.0081957
0.144157 0.0772977 0.123602 0.0757684
0.174637 0.170146 0.0338996 0.0121484
0.0722507 0.0763466 0.0839478 0.0276939
0.133211 0.0461958 0.123065 0.102146
