0.24731 0.44086 0.258066 0.0537634
-0.538883 -0.00131605 -0.525727 -0.686224
1.61502 1.99507 1.75519 1.46138
4.47043 4.11787 4.77839 4.82463
-6.88664 -7.53047 -7.03231 -6.45097
-4.57795 -4.64587 -4.71569 -4.79361
-30.3262 -29.0716 -30.7213 -31.9758
7.90445 7.24149 8.05952 7.42751
7.22672 7.22169 7.30015 7.8107
-17.8675 -16.7301 -18.1529 -17.3423
-5.65936 -5.70097 -5.82197 -5.66498
-14.5944 -15.8932 -15.4352 -14.9977
5.12348 5.82497 5.34211 5.01196
2.46744 2.60966 2.43951 2.96425
-2.90477 -4.26279 -2.01407 -3.2598
-0.330217 -0.35667 -0.273601 -0.253232
0.80751 0.997536 0.877596 0.730689
1.42771 1.0614 1.5116 1.68162
-5.67854 -5.82417 -5.90535 -5.6378
1.15435 1.4423 1.15831 0.828678
-12.8741 -12.2128 -13.0028 -13.5911
19.1153 18.1565 19.3904 19.7017
-0.338864 -0.00989543 -0.379685 0.191591
-12.5471 -11.9759 -12.7265 -12.5765
6.10407 5.51454 6.16548 5.83868
-4.46752 -5.09609 -4.80661 -4.66637
9.85895 10.8591 10.3886 10.0048
-1.32802 -1.60765 -1.4513 -1.02385
-2.6861 -3.43623 -2.22679 -3.11202
1.28727 1.95306 0.870234 1.50328
0.403755 0.498768 0.438798 0.365344
0.310098 0.0319328 0.317001 0.475468
-3.55312 -3.44279 -3.70847 -3.65971
3.41644 3.63324 3.53183 3.23324
-7.01424 -6.82757 -7.08056 -7.2099
15.9947 15.1847 16.1966 16.6464
-9.7271 -9.08321 -9.88505 -9.75504
-6.10412 -5.98299 -6.17342 -6.38405
9.32559 8.74521 9.44601 9.2076
-5.2858 -5.30532 -5.48604 -5.25252
7.16323 7.97758 7.59763 7.3356
-5.59348 -6.23336 -5.91998 -5.51434
-0.679042 -0.914287 -0.387742 -1.04409
1.98669 2.69464 1.54851 2.30765
0.0204883 0.0116583 0.0127495 0.0590857
0.0346401 0.025257 0.0141106 0.0549692
0.0867372 0.12287 0.0489161 0.064425
0.118342 0.148886 0.0290603 0.191837
0.0145632 0.01999 0.0115508 0.052438
0.135167 0.173257 0.0896119 0.0650958
0.0711923 0.0499704 0.0183112 0.0808573
0.120935 0.0784673 0.0270733 0.124785
0.181407 0.160981 0.076075 0.0535389
0.0117627 0.00859731 0.00503754 0.00679961
0.18863 0.329121 0.0850268 0.185966
0.0650916 0.0555459 0.0383039 0.0448038
0.0476209 0.0284293 0.015629 0.116679
0.0993935 0.341113 0.123378 0.0845164
0.0256517 0.0201158 0.0137604 0.0413497
0.00867502 0.00632925 0.00354264 0.0137573
0.0122482 0.031372 0.0187343 0.0587896
0.052883 0.10492 0.0178779 0.0295802
0.0278468 0.0447301 0.0067358 0.0895129
0.0401981 0.0448835 0.0283497 0.00196327
0.073007 0.0680959 0.0366344 0.00830241
0.0790806 0.0329755 0.0172598 0.0930698
0.125177 0.0758151 0.0303849 0.0617225
0.040292 0.0351279 0.023304 0.0114822
0.0307026 0.0650304 0.017345 0.0431396
0.0768993 0.109352 0.0432566 0.0244963
0.0431955 0.0275325 0.0172581 0.070819
0.0356025 0.102141 0.0310034 0.074839
0.0377634 0.0736246 0.0277091 0.0437411
0.00218375 0.00159731 0.000900661 0.00345432
0.00504181 0.0111725 0.00808246 0.0322481
0.0240947 0.0557139 0.0158541 0.0229163
0.0336876 0.0667002 0.00792852 0.0451562
0.0129115 0.00999316 0.00794662 0.0242531
0.0519449 0.0506465 0.0310886 0.0044918
0.0590085 0.030605 0.0216473 0.0300348
0.0915484 0.0353789 0.016531 0.0700549
0.0733226 0.0494592 0.0248912 0.0286414
0.0156361 0.030082 0.00778219 0.0126041
0.0482146 0.0822831 0.0264434 0.0305033
0.048615 0.0449586 0.0234047 0.0182796
0.0255035 0.0432037 0.0126394 0.066319
0.0326064 0.0848933 0.0282415 0.0578795
