0.234043 0.404255 0.170213 0.191489
-0.532455 -0.218141 -0.518973 -0.394095
1.2785 1.95983 1.26909 1.46627
4.60837 4.11561 4.80926 4.59738
-6.95785 -7.7774 -6.98016 -7.03288
-4.91948 -4.73623 -4.78247 -4.84998
-28.9044 -28.8819 -29.8952 -31.4152
6.67824 7.22927 6.71695 7.03904
8.07694 6.94741 8.1165 7.65408
-17.1919 -16.1124 -18.0032 -16.9001
-5.55084 -5.67907 -5.65009 -5.62737
-16.0158 -16.6854 -14.8006 -15.9018
4.89804 6.40761 4.89522 5.27623
3.51168 2.62682 3.55386 3.43952
-4.66152 -3.48807 -5.42101 -2.03328
-0.148035 -0.295127 -0.247906 -0.357129
0.639249 0.979917 0.634545 0.733137
1.66494 1.07789 1.77009 1.56555
-5.78311 -5.9465 -5.89471 -5.81513
1.01919 1.52058 1.09884 1.09145
-11.9925 -12.0728 -12.5564 -13.2826
17.7913 18.0556 18.3061 19.2271
0.699351 -0.140928 0.699777 0.307522
-12.6344 -11.5299 -13.0599 -12.2771
5.82055 5.21668 6.17656 5.63637
-5.23246 -5.50315 -4.57527 -5.13722
10.4569 11.5465 9.84793 10.589
-0.693179 -1.8904 -0.670681 -0.918355
-4.0866 -3.05744 -4.48744 -2.7364
2.25674 1.59647 2.58655 0.838076
0.319624 0.489958 0.317272 0.366569
0.512844 0.0489865 0.567771 0.416207
-3.72403 -3.5122 -3.8324 -3.69034
3.40115 3.73354 3.49678 3.45329
-6.50582 -6.7967 -6.8276 -7.18704
14.8919 15.0642 15.4312 16.2549
-8.54598 -9.09825 -8.80315 -9.4598
-6.6669 -5.69449 -6.87982 -6.29231
9.2275 8.3733 9.61821 8.95673
-5.52651 -5.35991 -5.37592 -5.3868
7.84468 8.52482 7.2116 7.86313
-5.57504 -6.71844 -5.25931 -5.75369
-1.69671 -0.583524 -1.90838 -0.909024
3.17167 2.32696 3.53699 1.78724
0.0202463 0.011232 0.0982153 0.0678869
0.0177935 0.0330262 0.0237407 0.0677278
0.0943812 0.153779 0.0271193 0.199786
0.190884 0.112836 0.0400253 0.198235
0.0170744 0.0120913 0.00746451 0.0491419
0.141572 0.342596 0.124967 0.363531
0.0612061 0.0222198 0.0347922 0.159624
0.158817 0.0387964 0.05791 0.162712
0.177877 0.325508 0.234127 0.139669
0.0115991 0.0205048 0.00689911 0.0108535
0.17408 0.264063 0.148793 0.491343
0.101594 0.101906 0.0343037 0.127268
0.0535535 0.0307558 0.0447762 0.123373
0.287226 0.545313 0.201936 0.368096
0.0176574 0.0167047 0.0166463 0.078893
0.00446339 0.00827154 0.00595019 0.0169469
0.0251415 0.0487627 0.0216554 0.0769251
0.0473742 0.110131 0.00843087 0.0536801
0.0360442 0.0266055 0.0130322 0.0715028
0.0446456 0.0740922 0.0304641 0.072445
0.0442511 0.0771534 0.063361 0.091188
0.0922913 0.0158646 0.0407794 0.137211
0.115717 0.11603 0.0945731 0.0673732
0.0317509 0.0643158 0.04731 0.0265616
0.0375917 0.0602772 0.0316844 0.115394
0.0511902 0.101641 0.0280328 0.0710784
0.039735 0.0459074 0.0188115 0.102228
0.127683 0.145434 0.070823 0.144943
0.0787709 0.141715 0.0503137 0.110907
0.00113085 0.00208289 0.00150255 0.00425174
0.00890486 0.0189072 0.0121091 0.0344507
0.0232978 0.0676159 0.00878689 0.0418715
0.0328594 0.0544309 0.00842688 0.0424502
0.00787512 0.0345051 0.00725337 0.0483266
0.0413288 0.0745813 0.0448923 0.0766549
0.0416182 0.0261261 0.0468824 0.0689794
0.0905196 0.042335 0.0534496 0.0807631
0.0600524 0.0861931 0.0649001 0.0342385
0.0135692 0.0402002 0.0134309 0.0153533
0.0366092 0.0694851 0.0275432 0.0850487
0.0295232 0.0523046 0.00491733 0.0396662
0.056303 0.0632954 0.0250929 0.0955921
0.100143 0.1404 0.0573288 0.124979
