0.181818 0.0606061 0.333291 0.424284
-0.348515 -0.370519 1.04176 0.810337
1.33635 0.422951 0.633712 0.503409
4.44854 3.49461 3.5817 3.65447
-7.09495 -8.77639 -7.9499 -8.14013
-4.51377 -5.14324 -4.71248 -4.69823
-29.8913 -29.994 -28.4852 -28.2459
7.72957 6.96153 7.20245 7.15775
7.26188 7.51206 7.56755 7.46844
-16.9803 -19.6941 -19.2885 -19.298
-5.61178 -5.58016 -5.66198 -5.62209
-15.9348 -12.4183 -12.5025 -12.1073
4.96581 6.03366 5.3074 5.21345
3.12572 3.54289 3.12594 2.96613
-3.50781 -1.45449 -4.65944 -3.59714
-0.60966 0.635575 0.403324 0.624986
0.668174 0.211476 0.316856 0.251705
1.5561 1.53583 1.47399 1.57553
-5.77175 -6.1355 -5.7658 -5.8973
1.29059 1.81657 1.61871 1.72095
-12.6888 -12.4254 -11.8864 -11.7738
18.8104 18.4778 17.8438 17.7018
-0.233844 0.275268 0.182552 0.155347
-12.1211 -13.6031 -13.428 -13.3832
5.68427 7.05698 6.81325 6.83796
-5.16151 -3.41908 -3.42027 -3.24258
10.4503 9.22599 8.90496 8.66035
-0.920041 -1.24538 -1.09073 -1.12366
-3.31677 -2.49869 -3.89269 -3.28163
1.44908 1.04503 2.53138 2.11106
0.334087 0.105738 0.158428 0.125852
0.443963 0.662177 0.578568 0.661913
-3.66392 -3.83566 -3.61989 -3.73642
3.53117 3.97604 3.69225 3.80913
-6.98968 -7.12098 -6.75254 -6.74739
15.7496 15.4516 14.8651 14.7378
-9.52215 -9.10125 -8.83064 -8.77324
-5.94363 -6.93918 -6.80528 -6.76929
8.90269 10.33 10.1206 10.1106
-5.42289 -5.23803 -5.11676 -5.04027
7.80591 6.32254 6.16262 5.95147
-5.68517 -5.23569 -4.99785 -4.892
-1.19836 -0.626654 -1.40098 -1.07899
2.38292 1.77186 3.21204 2.69635
0.065431 0.205176 0.0164086 0.0128038
0.0196272 0.0899046 0.0351134 0.0418249
0.0445559 0.191725 0.0412641 0.0613934
0.0523652 0.0195158 0.0326867 0.0799342
0.0485763 0.0163768 0.0142981 0.029219
0.159293 0.196198 0.0979466 0.170839
0.0353761 0.0560191 0.0294761 0.0452847
0.0399438 0.0751271 0.050358 0.0415848
0.122975 0.0474486 0.0990587 0.113256
0.0125584 0.00721493 0.00839395 0.00473699
0.166236 0.178984 0.0626766 0.115729
0.0537702 0.083065 0.0371377 0.0696953
0.0196879 0.158935 0.0343564 0.022535
0.48644 0.947779 0.0936838 0.166068
0.0300207 0.00991009 0.0224342 0.0446832
0.0049218 0.0224912 0.00879335 0.0104712
0.0122034 0.00679154 0.00602814 0.0214429
0.0284465 0.0690358 0.0239721 0.0609324
0.023971 0.0100573 0.00865531 0.0175836
0.049778 0.0271711 0.0280422 0.0600112
0.0675734 0.017773 0.0407597 0.0510487
0.020865 0.053958 0.0252399 0.0265628
0.0535225 0.0266643 0.0594164 0.0519886
0.0283009 0.00836769 0.0221967 0.0295319
0.0306361 0.0384079 0.015219 0.0274077
0.0638072 0.0982489 0.0381877 0.049199
0.0269799 0.00406423 0.0143801 0.0222986
0.123185 0.100834 0.0394145 0.0597879
0.132665 0.198982 0.0325008 0.0311904
0.00124545 0.00563779 0.00221334 0.00263281
0.00577909 0.00265979 0.00483298 0.0121212
0.015571 0.0275366 0.0101446 0.0317092
0.0188722 0.032012 0.0124236 0.0320071
0.0233319 0.00142206 0.0107219 0.0228249
0.0511864 0.0214841 0.0316111 0.0500655
0.0270985 0.0161367 0.0239393 0.0279767
0.0229349 0.0315669 0.0329751 0.0266286
0.0355729 0.0109624 0.0369987 0.0375693
0.0123647 0.00694984 0.00839228 0.0153135
0.0436187 0.063533 0.0242135 0.0337974
0.0325558 0.0197006 0.0192083 0.0289087
0.0438888 0.0216937 0.0174461 0.0246674
0.12513 0.143138 0.033241 0.0409124
