0.133333 0.177778 0.377778 0.311111
-0.412314 -0.113406 0.615823 -0.249879
1.41191 1.7529 2.00071 1.45866
4.54176 3.98815 3.6951 4.13807
-6.39968 -6.47335 -7.6351 -6.90395
-4.80348 -4.75067 -4.83443 -4.43343
-31.337 -30.6345 -27.6478 -30.7585
6.89281 7.81444 7.38025 7.79734
8.09694 7.41899 7.08739 7.17941
-17.4446 -17.9065 -17.203 -16.8868
-5.59646 -5.71745 -5.50135 -5.67549
-14.7655 -16.071 -16.1487 -15.4227
5.01205 5.62673 5.67939 5.23703
3.15157 2.68443 2.58136 2.81323
-3.66661 -2.60528 -4.5315 -3.3181
-0.19607 -0.440432 -0.35311 -0.530326
0.705953 0.876449 1.00036 0.729332
1.56493 1.11763 0.847194 1.3397
-5.47072 -5.23075 -5.6651 -5.52101
0.7981 0.861341 1.40033 1.23526
-13.2668 -12.9419 -11.4067 -13.1625
19.1149 19.2245 17.514 19.2779
0.602067 -0.197728 -0.146429 -0.308969
-12.7708 -12.6628 -12.1452 -12.0331
5.92407 6.09455 5.8508 5.60566
-4.58451 -5.17677 -5.3237 -4.87361
9.88877 10.8489 10.9141 10.3299
-0.930236 -1.47115 -1.54902 -1.2119
-3.40909 -2.64486 -3.55643 -3.06567
1.73527 1.08243 2.0892 1.39389
0.352976 0.438224 0.500178 0.364666
0.429486 0.120589 -0.0765806 0.305184
-3.51782 -3.17419 -3.25615 -3.43035
3.13441 3.04605 3.53272 3.37813
-7.03243 -6.90162 -6.40351 -7.19889
16.1908 16.0832 14.4604 16.2202
-9.25642 -9.7111 -8.83023 -9.79344
-6.68642 -6.23252 -5.99937 -5.86207
9.34742 9.37866 8.99799 8.81938
-5.25429 -5.63566 -5.58725 -5.23963
7.23664 8.01281 8.11888 7.60173
-5.4095 -6.16 -6.23154 -5.77088
-1.23943 -0.586852 -1.00371 -0.926883
2.57218 1.86364 2.82281 2.22978
0.0593175 0.0395676 0.022265 0.0181023
0.00744397 0.115203 0.0205294 0.0280259
0.0874394 0.154558 0.16403 0.0445035
0.017662 0.581966 0.176783 0.0820252
0.00714746 0.0243851 0.0208014 0.0296806
0.300078 1.03056 0.538023 0.115539
0.0656053 0.216947 0.0481624 0.0773659
0.0703796 0.108175 0.0485528 0.0243425
0.0616317 0.202977 0.344462 0.151608
0.0263853 0.00706094 0.0268488 0.0185235
0.194337 0.17553 0.869113 0.197505
0.0704632 0.142194 0.131661 0.0239804
0.0371462 0.0434016 0.048552 0.0434737
0.204448 0.173454 0.378023 0.131923
0.00753168 0.0415592 0.0464445 0.0081729
0.00187599 0.0288158 0.00514734 0.00702148
0.0328299 0.105989 0.040565 0.0166426
0.0212616 0.228466 0.097227 0.0323906
0.00716649 0.175327 0.0386267 0.0222553
0.0905349 0.276601 0.122942 0.0262545
0.139026 0.31995 0.149523 0.0427155
0.0386978 0.148327 0.0201062 0.0345436
0.0379491 0.0510727 0.1063 0.0616959
0.00847025 0.0572688 0.0916991 0.0391994
0.0216089 0.0378853 0.166268 0.0318301
0.0619901 0.106693 0.187178 0.0589301
0.0490589 0.0641817 0.0173083 0.014053
0.0813855 0.050839 0.102515 0.0260039
0.0648585 0.0297443 0.106493 0.0301524
0.000483998 0.00721894 0.00130184 0.00177037
0.0118892 0.0577435 0.0126055 0.00905184
0.0248023 0.131787 0.0537332 0.0164857
0.00902549 0.192408 0.0567409 0.0245485
0.0309397 0.129892 0.0445239 0.0101225
0.111204 0.288719 0.13387 0.0308939
0.054994 0.151868 0.0526533 0.0261021
0.0257373 0.0738292 0.0366418 0.0359851
0.0140062 0.0477277 0.0922966 0.0473628
0.00543109 0.0238948 0.0154103 0.0121107
0.03536 0.0630817 0.168011 0.0428088
0.0409376 0.0764178 0.0574994 0.0269555
0.0534592 0.038937 0.0299615 0.0101934
0.0700378 0.0339228 0.0960913 0.0263042
