0.272727 0.363636 0.204545 0.159091
1.1689 0.114042 0.386214 1.01011
1.02854 1.14635 1.00262 0.815554
4.07029 4.28437 4.2254 4.3972
-7.75785 -7.97078 -8.90085 -7.75644
-4.52623 -4.88155 -4.6291 -4.33741
-28.5022 -30.1375 -28.7024 -27.9641
6.93969 7.75854 6.82605 6.93442
7.27008 6.62242 7.39574 7.45101
-19.5469 -18.6563 -19.8591 -19.5529
-5.59673 -5.53115 -5.62593 -5.66375
-12.2395 -13.9379 -12.1455 -11.5266
5.36365 5.83074 5.51059 4.80051
3.5392 3.1468 3.53825 3.50087
-4.69131 -1.34879 -2.31973 -4.21408
-0.242841 -0.120417 -0.125632 -0.122109
0.514269 0.573176 0.50131 0.407777
1.52088 1.56901 1.61139 1.79082
-5.91407 -6.12758 -6.56312 -6.07682
1.61581 1.54462 2.13588 1.70952
-11.988 -12.628 -12.0367 -11.8134
17.721 18.948 17.7642 17.4493
0.165192 -0.568064 0.284847 0.258297
-13.4085 -12.6393 -13.6274 -13.502
6.97508 6.56256 7.11659 6.94458
-3.32141 -4.20337 -3.25977 -2.93145
8.8016 9.88431 8.82803 8.16358
-0.912222 -1.34197 -0.986171 -0.649817
-4.11526 -2.24779 -2.92899 -3.85748
2.22423 0.614184 1.09705 2.04599
0.257135 0.286588 0.250655 0.203889
0.503303 0.497917 0.555039 0.691524
-3.71747 -3.84829 -4.08725 -3.93382
3.76494 3.8361 4.3495 3.89317
-6.8019 -7.08628 -7.08626 -6.76144
14.8545 15.788 14.9004 14.6313
-8.77788 -9.75803 -8.73969 -8.59549
-6.78684 -6.03564 -6.95614 -6.88013
10.1918 9.60095 10.372 10.2233
-5.14824 -5.38296 -5.18818 -4.93801
6.0615 7.04384 6.0439 5.54751
-4.85691 -5.61314 -4.9071 -4.4067
-1.60152 -0.452911 -0.971409 -1.60383
3.16975 1.43099 2.01302 2.95173
0.0752665 0.0135456 0.164459 0.0278522
0.0130534 0.0544887 0.0453862 0.0270919
0.0543112 0.0666672 0.0772783 0.048534
0.0570875 0.0999121 0.201311 0.0435598
0.012131 0.0318728 0.0248539 0.0142129
0.0716453 0.252244 0.101827 0.0815472
0.00699408 0.132959 0.0296177 0.00393825
0.0815159 0.0258736 0.273694 0.0264524
0.146007 0.131247 0.100541 0.108416
0.0157209 0.0179446 0.0175563 0.00373269
0.0907241 0.108665 1.08273 0.0528444
0.075413 0.140763 0.225115 0.054008
0.00928426 0.123097 0.087067 0.037462
0.450075 0.180799 0.465433 0.163768
0.0100215 0.0121672 0.0405365 0.0185383
0.00327836 0.0136372 0.0113616 0.00678798
0.0166453 0.0240338 0.0326985 0.0139678
0.0346863 0.0445827 0.0772411 0.0235351
0.0126436 0.0277284 0.0783373 0.0164788
0.0120364 0.0597478 0.0424947 0.0115311
0.017385 0.173215 0.0478611 0.0231912
0.0144677 0.0263606 0.0691886 0.00869934
0.0985514 0.0349744 0.111469 0.0318524
0.0238494 0.0257478 0.0367423 0.0228449
0.0295066 0.0229877 0.246895 0.0144798
0.0690684 0.047131 0.546072 0.0336077
0.0171602 0.021715 0.0182228 0.0186973
0.122056 0.111777 0.175656 0.0832757
0.116861 0.0451572 0.152764 0.0206702
0.000834591 0.0034243 0.00285539 0.001712
0.00656866 0.01467 0.0172014 0.00734579
0.0224735 0.02754 0.0358949 0.0155087
0.0183361 0.0278979 0.069795 0.0161702
0.0060376 0.00985623 0.0397655 0.00183349
0.0135693 0.103037 0.0428649 0.0164314
0.00809409 0.0796817 0.0359606 0.00880768
0.044849 0.0183835 0.0831172 0.0137164
0.0512222 0.027558 0.0533309 0.0251614
0.00838464 0.0118623 0.035415 0.0111706
0.0458428 0.0224312 0.37997 0.020157
0.0349743 0.0277926 0.185962 0.0172845
0.0462824 0.0446869 0.0292131 0.0360524
0.118286 0.072346 0.159826 0.0453795
