0.5 0.175 0.275 0.05
-1.00624 -0.0749723 3.60359 0.871557
1.44192 1.75451 1.5425 1.26092
4.32961 3.72887 4.08409 3.14101
-7.57281 -7.78666 -7.76724 -6.24415
-4.86155 -4.88797 -4.84487 -4.48956
-29.9536 -31.1371 -29.284 -25.5188
6.99324 7.29558 7.12021 6.92661
8.01218 7.54754 7.74108 8.11141
-19.29 -18.7396 -19.9356 -20.4219
-5.64018 -5.7292 -5.66197 -5.3857
-13.4386 -13.3335 -13.2921 -14.4713
5.34375 5.52363 5.56804 5.09742
3.19896 3.16351 3.2317 2.30179
-7.1826 -5.70463 -8.37844 -6.67468
-0.245647 -0.297219 -0.353335 -0.112693
0.0702819 0.0617198 0.424494 0.569704
0.0178956 0.00700485 0.00951423 0.0201988
0.0175412 0.00457146 0.016848 0.00503888
0.0143104 0.0335596 0.0445325 0.12057
0.00766176 0.00276343 0.0108533 0.00361179
0.0634794 0.0358309 0.921094 0.0393006
0.028851 0.0477955 0.0153934 0.00613721
0.0179218 0.0267564 0.0599002 0.0115876
0.0447307 0.0309983 0.064 0.0183782
0.00398026 0.00553877 0.0126477 0.00147823
0.0293091 0.0938254 0.251931 0.176016
0.00764503 0.0390178 0.0181163 0.0463075
0.0146185 0.0258123 0.00914191 0.056298
0.0576785 0.3269 0.0693606 1.10878
0.00509292 0.00790666 0.00680076 0.00150686
