0.594595 0.0810811 0.162162 0.162162
-0.979709 2.26378 1.57157 3.09129
1.41122 1.48027 1.58649 1.48767
4.38408 4.56967 4.48915 4.40774
-7.54292 -7.95143 -8.37266 -8.19473
-4.85162 -5.03111 -4.92681 -4.96232
-29.7879 -29.3144 -30.1787 -29.6865
6.91843 7.29052 7.14144 7.22158
7.93231 7.67313 8.02611 7.86042
-19.2915 -20.1982 -19.6684 -20.1696
-5.61904 -5.73134 -5.70323 -5.68316
-13.3705 -12.651 -13.2676 -12.8669
5.31282 5.20234 5.24473 5.36504
3.30353 3.2908 3.36042 3.30247
-7.02482 -6.40588 -6.67464 -7.68638
-0.253707 -0.0463995 -0.405581 -0.278309
0.104333 0.058316 0.272104 0.145008
0.0146488 0.0215846 0.00181255 0.00438538
0.0279518 0.0156545 0.0135798 0.00959622
0.0199679 0.032449 0.0491581 0.013305
0.00369433 0.00340417 0.00845745 0.00834797
0.105247 0.172091 0.0238127 0.0239078
0.0240607 0.001831 0.0243836 0.0174482
0.010062 0.0538232 0.025251 0.0457482
0.0414564 0.0853524 0.191581 0.0303936
0.00587337 0.0179162 0.0021923 0.00108657
0.0145593 0.00875294 0.0564702 0.0170213
0.020939 0.00205187 0.0305675 0.00955076
0.00854957 0.00489507 0.0222916 0.006087
0.102666 0.0510265 0.395098 0.0219163
0.00908983 0.00424751 0.0165428 0.00711725
