0.0625 0.4375 0.34375 0.15625
-1.0847 -0.936958 2.02173 -0.611916
1.19823 1.34845 1.40907 1.28482
4.11552 4.32785 4.06361 4.21028
-6.44002 -7.47361 -7.25345 -7.43833
-4.68958 -4.86304 -4.8745 -4.7598
-28.3091 -29.8855 -28.8101 -29.1963
6.77919 6.83855 7.0801 6.95633
8.04579 7.99795 7.94079 7.99888
-20.0977 -19.1148 -20.2708 -19.991
-5.65239 -5.62355 -5.66065 -5.80324
-13.9321 -13.3881 -13.4311 -13.5844
5.19422 5.24401 5.46059 5.48097
3.42882 3.3874 3.21275 3.44567
-6.45756 -7.23523 -8.29719 -7.18434
-0.240061 -0.202849 -0.228459 -0.216402
0.00560564 0.133377 0.372633 0.215967
0.000221069 0.00428241 0.0143251 0.00429406
0.010363 0.00840271 0.0537182 0.0066247
4.27463e-005 0.0377141 0.231295 0.0576263
0.019993 0.014141 0.0227517 0.00712151
0.000716858 0.0459605 0.921886 0.0914907
2.89263e-005 0.0164242 0.0216633 0.00964383
0.00463068 0.0108362 0.0238312 0.0520298
0.000231342 0.0735835 0.502081 0.0462326
0.00287909 0.00800261 0.0104405 0.00285087
0.00650603 0.0407787 0.239644 0.0111524
0.000835908 0.00995037 0.0431513 0.0414358
0.000582035 0.00548996 0.0230479 0.00147152
0.0948233 0.2282 0.472205 0.0605893
0.0339886 0.00670075 0.00277974 0.00488336
