0.228571 0.342857 0.171429 0.257143
1.42287 1.23893 -0.498587 -1.236
1.20304 1.36958 1.37836 1.34318
3.95841 4.28888 4.36942 4.34113
-7.05599 -7.57359 -7.53338 -7.42135
-4.62524 -4.93047 -4.86536 -4.85318
-28.0533 -29.8024 -29.9692 -29.7199
7.18702 7.08231 6.96328 6.80258
7.52994 8.05332 8.03769 8.0011
-20.8493 -19.6602 -19.3381 -19.0044
-5.63891 -5.70687 -5.65748 -5.57524
-12.9909 -13.6079 -13.5028 -13.4963
5.34911 5.43636 5.33564 5.21119
3.20199 3.34465 3.31332 3.33979
-6.50879 -8.25925 -7.42397 -6.84546
-0.249113 -0.226071 -0.247545 -0.210331
0.473534 0.437403 0.107849 0.0167681
0.00801164 0.00304772 0.00775753 0.00320751
0.0177481 0.0031302 0.0116824 0.00622361
0.107505 0.0271115 0.00369017 0.0216538
0.0261179 0.00543352 0.00636451 0.0155481
0.535847 0.0635386 0.0579881 0.233453
0.0465683 0.00253925 0.00559231 0.0282766
0.0711933 0.00805977 0.0141669 0.0268964
0.208184 0.055378 0.0572012 0.0593308
0.0179562 0.00282399 0.00312138 0.00422488
0.134408 0.00803778 0.0171643 0.068709
0.0479422 0.0108033 0.00543653 0.0333795
0.0569313 0.00352413 0.00454541 0.0183201
0.45219 0.136228 0.036519 0.0599284
0.00442223 0.00413842 0.00571517 0.00385302
