0.296296 0.111111 0.111111 0.481481
1.40672 -1.06728 0.118355 -1.25404
1.39863 1.0449 1.16964 1.2552
4.48625 4.60096 3.8285 4.46991
-7.52077 -7.43586 -7.40076 -7.435
-4.97415 -4.85558 -4.53582 -4.93349
-27.9727 -28.8435 -28.3286 -29.7465
7.20964 7.01135 7.03248 6.92071
7.53517 7.71158 7.82028 8.07145
-21.5964 -20.463 -20.1951 -19.374
-5.57161 -5.69818 -5.36338 -5.57514
-12.5106 -12.8829 -12.934 -13.2927
5.53788 5.46729 4.69565 5.18169
3.27975 3.61277 2.78751 3.32422
-6.34963 -6.71761 -5.03432 -6.93009
-0.225112 -0.106588 -0.265278 -0.137886
0.161237 0.0963681 0.649183 0.00770308
0.0259184 0.0136854 0.0803507 0.0122263
0.0736848 0.000797394 0.0238233 0.016986
0.205166 0.0135143 0.201065 0.0299723
0.0233582 0.00645227 0.0815041 0.00898152
0.245598 0.129103 0.0790385 0.0238577
0.0438327 0.0328374 0.0592741 0.0142825
0.122036 0.0725135 0.148745 0.0085824
0.226479 0.0311966 0.611675 0.0397199
0.0223997 0.0140531 0.0219447 0.00568346
0.149929 0.0427619 0.0199541 0.0128989
0.215187 0.000687576 0.0379119 0.0181399
0.0895575 0.016031 0.0204946 0.00897837
0.491772 0.315037 0.0197346 0.039714
0.0118604 0.00554571 0.000869678 0.00848489
